{
    "$schema": "http://json-schema.org/draft-07/schema#",
    "$id": "http://api.example.com/profile.json#",
    "type": "array",
    "uniqueItems": true,
    "items": {
        "type": "object",
        "properties": {
            "type": {
                "type": "string",
                "minLenght": 1,
                "maxLength": 64
            },
            "points": {
                "type": "array",
                "items": {
                    "type": "object",
                    "properties": {
                        "longitude": {
                            "type": "number"
                        },
                        "latitude": {
                            "type": "number"
                        }
                    },
                    "required": ["longitude", "latitude"],
                    "additionalProperties": false
                }
            }
        },
        "required": ["type", "points"],
        "additionalProperties": false
    }
}